EESchema Schematic File Version 2
LIBS:power
LIBS:device
LIBS:switches
LIBS:relays
LIBS:motors
LIBS:transistors
LIBS:conn
LIBS:linear
LIBS:regul
LIBS:74xx
LIBS:cmos4000
LIBS:adc-dac
LIBS:memory
LIBS:xilinx
LIBS:microcontrollers
LIBS:dsp
LIBS:microchip
LIBS:analog_switches
LIBS:motorola
LIBS:texas
LIBS:intel
LIBS:audio
LIBS:interface
LIBS:digital-audio
LIBS:philips
LIBS:display
LIBS:cypress
LIBS:siliconi
LIBS:opto
LIBS:atmel
LIBS:contrib
LIBS:valves
LIBS:myParts
EELAYER 25 0
EELAYER END
$Descr A4 11693 8268
encoding utf-8
Sheet 1 1
Title ""
Date ""
Rev ""
Comp ""
Comment1 ""
Comment2 ""
Comment3 ""
Comment4 ""
$EndDescr
$Comp
L Trinket U?
U 1 1 5ADF200F
P 3450 2650
F 0 "U?" H 3200 3050 60  0000 C CNN
F 1 "Trinket" H 3300 2350 60  0000 C CNN
F 2 "" H 2900 3350 60  0001 C CNN
F 3 "" H 2900 3350 60  0001 C CNN
	1    3450 2650
	1    0    0    -1  
$EndComp
$Comp
L FINDER-40.31 K?
U 1 1 5ADF20A6
P 5850 2400
F 0 "K?" H 6300 2550 50  0000 L CNN
F 1 "FINDER-40.31" H 6300 2450 50  0000 L CNN
F 2 "Relays_THT:Relay_SPDT_Finder_40.31" H 6990 2360 50  0001 C CNN
F 3 "" H 5850 2400 50  0001 C CNN
	1    5850 2400
	1    0    0    -1  
$EndComp
$Comp
L LED D?
U 1 1 5ADF2133
P 1850 3050
F 0 "D?" H 1850 3150 50  0000 C CNN
F 1 "LED" H 1850 2950 50  0000 C CNN
F 2 "" H 1850 3050 50  0001 C CNN
F 3 "" H 1850 3050 50  0001 C CNN
	1    1850 3050
	0    -1   -1   0   
$EndComp
$Comp
L R R?
U 1 1 5ADF2188
P 2100 2600
F 0 "R?" V 2180 2600 50  0000 C CNN
F 1 "R" V 2100 2600 50  0000 C CNN
F 2 "" V 2030 2600 50  0001 C CNN
F 3 "" H 2100 2600 50  0001 C CNN
	1    2100 2600
	0    1    1    0   
$EndComp
$Comp
L R R?
U 1 1 5ADF2229
P 5100 1800
F 0 "R?" V 5180 1800 50  0000 C CNN
F 1 "R" V 5100 1800 50  0000 C CNN
F 2 "" V 5030 1800 50  0001 C CNN
F 3 "" H 5100 1800 50  0001 C CNN
	1    5100 1800
	0    1    1    0   
$EndComp
$Comp
L R R?
U 1 1 5ADF2388
P 3750 3300
F 0 "R?" V 3830 3300 50  0000 C CNN
F 1 "R" V 3750 3300 50  0000 C CNN
F 2 "" V 3680 3300 50  0001 C CNN
F 3 "" H 3750 3300 50  0001 C CNN
	1    3750 3300
	-1   0    0    1   
$EndComp
$Comp
L R_Variable R?
U 1 1 5ADF245D
P 3700 3850
F 0 "R?" V 3800 3750 50  0000 L CNN
F 1 "R_Variable" V 3600 3800 50  0000 L CNN
F 2 "" V 3630 3850 50  0001 C CNN
F 3 "" H 3700 3850 50  0001 C CNN
	1    3700 3850
	1    0    0    -1  
$EndComp
Wire Wire Line
	2950 2500 2800 2500
Wire Wire Line
	2800 2500 2800 3000
Wire Wire Line
	3950 2800 4150 2800
Wire Wire Line
	4150 2800 4150 2000
$Comp
L 2N3904 Q?
U 1 1 5ADF2746
P 5550 1800
F 0 "Q?" H 5750 1875 50  0000 L CNN
F 1 "2N3904" H 5750 1800 50  0000 L CNN
F 2 "TO_SOT_Packages_THT:TO-92_Molded_Narrow" H 5750 1725 50  0001 L CIN
F 3 "" H 5550 1800 50  0001 L CNN
	1    5550 1800
	1    0    0    -1  
$EndComp
$Comp
L D D?
U 1 1 5ADF27B1
P 5150 2400
F 0 "D?" H 5150 2500 50  0000 C CNN
F 1 "D" H 5150 2300 50  0000 C CNN
F 2 "" H 5150 2400 50  0001 C CNN
F 3 "" H 5150 2400 50  0001 C CNN
	1    5150 2400
	0    1    1    0   
$EndComp
$Comp
L FINDER-40.31 K?
U 1 1 5ADF2EBA
P 5850 4500
F 0 "K?" H 6300 4650 50  0000 L CNN
F 1 "FINDER-40.31" H 6300 4550 50  0000 L CNN
F 2 "Relays_THT:Relay_SPDT_Finder_40.31" H 6990 4460 50  0001 C CNN
F 3 "" H 5850 4500 50  0001 C CNN
	1    5850 4500
	1    0    0    -1  
$EndComp
$Comp
L R R?
U 1 1 5ADF2EC0
P 5100 3900
F 0 "R?" V 5180 3900 50  0000 C CNN
F 1 "R" V 5100 3900 50  0000 C CNN
F 2 "" V 5030 3900 50  0001 C CNN
F 3 "" H 5100 3900 50  0001 C CNN
	1    5100 3900
	0    1    1    0   
$EndComp
$Comp
L 2N3904 Q?
U 1 1 5ADF2EC6
P 5550 3900
F 0 "Q?" H 5750 3975 50  0000 L CNN
F 1 "2N3904" H 5750 3900 50  0000 L CNN
F 2 "TO_SOT_Packages_THT:TO-92_Molded_Narrow" H 5750 3825 50  0001 L CIN
F 3 "" H 5550 3900 50  0001 L CNN
	1    5550 3900
	1    0    0    -1  
$EndComp
$Comp
L D D?
U 1 1 5ADF2ECC
P 5150 4500
F 0 "D?" H 5150 4600 50  0000 C CNN
F 1 "D" H 5150 4400 50  0000 C CNN
F 2 "" H 5150 4500 50  0001 C CNN
F 3 "" H 5150 4500 50  0001 C CNN
	1    5150 4500
	0    1    1    0   
$EndComp
Wire Wire Line
	5250 1800 5350 1800
Wire Wire Line
	5650 2000 5650 2100
Wire Wire Line
	4950 1800 4600 1800
Wire Wire Line
	4600 1800 4600 2500
Wire Wire Line
	4600 2500 3950 2500
Wire Wire Line
	3950 2600 4600 2600
Wire Wire Line
	4600 2600 4600 3900
Wire Wire Line
	4600 3900 4950 3900
Wire Wire Line
	5250 3900 5350 3900
Wire Wire Line
	5150 2250 5150 2050
Wire Wire Line
	5150 2050 5650 2050
Connection ~ 5650 2050
Wire Wire Line
	5650 2700 5650 2800
Wire Wire Line
	5650 2750 5150 2750
Wire Wire Line
	5150 2750 5150 2550
Wire Wire Line
	5650 4100 5650 4200
Wire Wire Line
	5150 4350 5150 4150
Wire Wire Line
	5150 4150 5650 4150
Connection ~ 5650 4150
Wire Wire Line
	5650 4800 5650 4900
Wire Wire Line
	5650 4850 5150 4850
Wire Wire Line
	5150 4850 5150 4650
$Comp
L +5V #PWR?
U 1 1 5ADF30B3
P 5650 3650
F 0 "#PWR?" H 5650 3500 50  0001 C CNN
F 1 "+5V" H 5650 3790 50  0000 C CNN
F 2 "" H 5650 3650 50  0001 C CNN
F 3 "" H 5650 3650 50  0001 C CNN
	1    5650 3650
	1    0    0    -1  
$EndComp
$Comp
L +5V #PWR?
U 1 1 5ADF317D
P 5650 1550
F 0 "#PWR?" H 5650 1400 50  0001 C CNN
F 1 "+5V" H 5650 1690 50  0000 C CNN
F 2 "" H 5650 1550 50  0001 C CNN
F 3 "" H 5650 1550 50  0001 C CNN
	1    5650 1550
	1    0    0    -1  
$EndComp
$Comp
L +5V #PWR?
U 1 1 5ADF31B9
P 4150 2000
F 0 "#PWR?" H 4150 1850 50  0001 C CNN
F 1 "+5V" H 4150 2140 50  0000 C CNN
F 2 "" H 4150 2000 50  0001 C CNN
F 3 "" H 4150 2000 50  0001 C CNN
	1    4150 2000
	1    0    0    -1  
$EndComp
$Comp
L GND #PWR?
U 1 1 5ADF31F5
P 2800 3000
F 0 "#PWR?" H 2800 2750 50  0001 C CNN
F 1 "GND" H 2800 2850 50  0000 C CNN
F 2 "" H 2800 3000 50  0001 C CNN
F 3 "" H 2800 3000 50  0001 C CNN
	1    2800 3000
	1    0    0    -1  
$EndComp
Wire Wire Line
	5650 3650 5650 3700
$Comp
L GND #PWR?
U 1 1 5ADF3308
P 5650 2800
F 0 "#PWR?" H 5650 2550 50  0001 C CNN
F 1 "GND" H 5650 2650 50  0000 C CNN
F 2 "" H 5650 2800 50  0001 C CNN
F 3 "" H 5650 2800 50  0001 C CNN
	1    5650 2800
	1    0    0    -1  
$EndComp
$Comp
L GND #PWR?
U 1 1 5ADF3350
P 5650 4900
F 0 "#PWR?" H 5650 4650 50  0001 C CNN
F 1 "GND" H 5650 4750 50  0000 C CNN
F 2 "" H 5650 4900 50  0001 C CNN
F 3 "" H 5650 4900 50  0001 C CNN
	1    5650 4900
	1    0    0    -1  
$EndComp
Connection ~ 5650 2750
Connection ~ 5650 4850
$Comp
L GND #PWR?
U 1 1 5ADF3555
P 1850 3450
F 0 "#PWR?" H 1850 3200 50  0001 C CNN
F 1 "GND" H 1850 3300 50  0000 C CNN
F 2 "" H 1850 3450 50  0001 C CNN
F 3 "" H 1850 3450 50  0001 C CNN
	1    1850 3450
	1    0    0    -1  
$EndComp
Wire Wire Line
	2950 2600 2250 2600
Wire Wire Line
	1950 2600 1850 2600
Wire Wire Line
	1850 2600 1850 2900
Wire Wire Line
	1850 3200 1850 3450
$EndSCHEMATC
